…
``` r
month_df = 
  tibble(
    month = 1:12,
    month_name = month.name
  )

precip_df = 
  bind_rows(precip_2018, precip_2017) 

left_join(precip_df, month_df, by = "month")
```

    ## # A tibble: 24 x 4
    ##     year month total month_name
    ##    <dbl> <dbl> <dbl> <chr>     
    ##  1  2018     1  0.94 January   
    ##  2  2018     2  4.8  February  
    ##  3  2018     3  2.69 March     
    ##  4  2018     4  4.69 April     
    ##  5  2018     5  9.27 May       
    ##  6  2018     6  4.77 June      
    ##  7  2018     7 10.2  July      
    ##  8  2018     8  6.45 August    
    ##  9  2018     9 10.5  September 
    ## 10  2018    10  2.12 October   
    ## # … with 14 more rows
…
Answer questions about the dataset.

``` r
distinct(transit_df, line, station_name)
```

    ## # A tibble: 465 x 2
    ##    line     station_name            
    ##    <chr>    <chr>                   
    ##  1 4 Avenue 25th St                 
    ##  2 4 Avenue 36th St                 
    ##  3 4 Avenue 45th St                 
    ##  4 4 Avenue 53rd St                 
    ##  5 4 Avenue 59th St                 
    ##  6 4 Avenue 77th St                 
    ##  7 4 Avenue 86th St                 
    ##  8 4 Avenue 95th St                 
    ##  9 4 Avenue 9th St                  
    ## 10 4 Avenue Atlantic Av-Barclays Ctr
    ## # … with 455 more rows
…
pols_df = relocate(pols_df, prez_dem, .after = prez_gop)
  
pols_tidy =
  pivot_longer(
    pols_df,
    prez_gop:prez_dem,
    names_to = "president",
    values_to = "president_value") %>% 
  mutate(president = recode(president, prez_gop = "gop", prez_dem = "dem"))

select(pols_df, -day, -prez_dem, -prez_gop)
```

    ## # A tibble: 822 x 9
    ##     year month gov_gop sen_gop rep_gop gov_dem sen_dem rep_dem month_name
    ##    <int> <int>   <dbl>   <dbl>   <dbl>   <dbl>   <dbl>   <dbl> <chr>     
    ##  1  1947     1      23      51     253      23      45     198 January   
    ##  2  1947     2      23      51     253      23      45     198 February  
    ##  3  1947     3      23      51     253      23      45     198 March     
    ##  4  1947     4      23      51     253      23      45     198 April     
    ##  5  1947     5      23      51     253      23      45     198 May       
    ##  6  1947     6      23      51     253      23      45     198 June      
    ##  7  1947     7      23      51     253      23      45     198 July      
    ##  8  1947     8      23      51     253      23      45     198 August    
    ##  9  1947     9      23      51     253      23      45     198 September 
    ## 10  1947    10      23      51     253      23      45     198 October   
    ## # … with 812 more rows
…
